JURISDICTION,Numberof Sales,SalesRatioMean,SalesRatioMedian,CoefficientofVariation,StandardDeviation,WeightedMean,PRD,COD
ADAIR,69,104.6%,97.72%,41.123,0.43,92.22%,113.4%,25.05%
ADAMS,43,102.2%,82.16%,56.635,0.5789,76.99%,132.8%,47.86%
ALLAMAKEE,156,102.7%,96.87%,36.349,0.3734,94.09%,109.2%,23.74%
APPANOOSE,149,105.1%,96.56%,47.892,0.5031,91.57%,114.7%,30.66%
AUDUBON,76,103.6%,98.54%,37.559,0.3892,89.91%,115.2%,27.16%
BENTON,313,108.6%,97.00%,42.474,0.4611,97.30%,111.6%,24.49%
BLACK HAWK,1616,98.96%,93.93%,30.837,0.3052,94.19%,105.1%,15.93%
BOONE,318,104.6%,95.42%,45.747,0.4785,93.90%,111.4%,26.10%
BREMER,306,97.81%,92.89%,24.517,0.2398,93.71%,104.4%,14.25%
BUCHANAN,237,103.5%,97.57%,30.945,0.3203,79.74%,129.8%,19.40%
BUENA VISTA,232,96.13%,93.43%,22.208,0.2135,93.06%,103.3%,16.24%
BUTLER,114,103.3%,96.82%,32.302,0.3337,95.12%,108.6%,20.84%
CALHOUN,111,96.84%,90.31%,37.482,0.363,86.54%,111.9%,27.39%
CARROLL,260,105.5%,96.06%,40.775,0.4303,94.99%,111.1%,24.97%
CASS,147,102.0%,96.94%,32.631,0.3329,94.41%,108.0%,18.21%
CEDAR,194,97.69%,94.33%,25.028,0.2445,76.83%,127.2%,15.64%
CERRO GORDO,267,96.47%,95.88%,21.163,0.2042,92.89%,103.9%,13.25%
Cerro Gordo - Mason City,302,108.2%,98.92%,38.449,0.4161,98.50%,109.9%,20.07%
CHEROKEE,136,88.52%,85.17%,27.509,0.2435,82.54%,107.2%,18.70%
CHICKASAW,128,97.01%,95.76%,19.656,0.1907,93.41%,103.9%,13.90%
CLARKE,94,95.70%,90.12%,35.113,0.336,88.70%,107.9%,19.82%
CLAY,229,97.72%,94.96%,24.527,0.2397,92.51%,105.6%,15.39%
CLAYTON,190,97.48%,92.20%,34.265,0.334,89.65%,108.7%,22.71%
CLINTON,208,98.29%,93.83%,25.925,0.2548,92.48%,106.3%,16.84%
Clinton - City of Clinton,312,114.7%,103.3%,37.619,0.4313,81.57%,140.5%,23.28%
CRAWFORD,147,101.8%,96.71%,30.049,0.3059,94.73%,107.5%,18.41%
DALLAS,1403,96.97%,96.30%,18.869,0.183,95.44%,101.6%,9.20%
DAVIS,79,108.2%,103.3%,29.828,0.3228,98.65%,109.7%,22.49%
DECATUR,72,113.4%,100.1%,55.785,0.6323,90.46%,125.3%,39.83%
DELAWARE,156,94.41%,89.29%,28.877,0.2726,90.69%,104.1%,19.57%
DES MOINES,500,102.3%,95.77%,37.495,0.3837,93.55%,109.4%,21.49%
DICKINSON,489,92.31%,89.26%,22.628,0.2089,89.51%,103.1%,14.59%
DUBUQUE,396,93.99%,91.31%,17.953,0.1687,91.22%,103.0%,11.71%
Dubuque - City of Dubuque,757,98.29%,94.63%,25.325,0.2489,94.06%,104.5%,13.70%
EMMET,136,104.3%,92.14%,43.557,0.4543,91.10%,114.5%,30.81%
FAYETTE,192,103.5%,95.65%,34.106,0.353,92.68%,111.7%,23.69%
FLOYD,186,98.10%,95.29%,27.664,0.2714,93.70%,104.7%,17.46%
FRANKLIN,74,98.07%,98.43%,22.664,0.2223,93.26%,105.2%,16.90%
FREMONT,56,105.1%,94.89%,33.976,0.3572,92.71%,113.4%,27.11%
GREENE,119,101.0%,95.79%,34.102,0.3444,91.23%,110.7%,25.32%
GRUNDY,119,101.5%,91.15%,41.392,0.42,91.68%,110.7%,24.37%
GUTHRIE,131,95.09%,90.87%,29.283,0.2785,86.97%,109.3%,19.83%
HAMILTON,169,100.5%,93.97%,39.446,0.3964,93.44%,107.5%,22.89%
HANCOCK,131,104.2%,93.55%,38.805,0.4043,93.47%,111.5%,23.28%
HARDIN,242,105.7%,96.95%,42.19,0.4461,93.44%,113.2%,30.71%
HARRISON,137,99.25%,90.42%,33.167,0.3292,92.22%,107.6%,25.97%
HENRY,221,99.61%,94.88%,34.277,0.3415,93.05%,107.1%,18.91%
HOWARD,84,97.42%,95.02%,23.149,0.2255,92.52%,105.3%,17.86%
HUMBOLDT,116,100.9%,96.04%,27.622,0.2786,94.81%,106.4%,19.78%
IDA,65,103.1%,89.68%,49.933,0.515,87.96%,117.3%,29.95%
IOWA,170,103.1%,94.39%,42.116,0.4343,93.76%,110.0%,21.95%
JACKSON,168,105.1%,97.75%,29.468,0.3098,98.31%,106.9%,18.84%
JASPER,401,108.2%,95.13%,49.092,0.5312,94.59%,114.4%,25.54%
JEFFERSON,179,93.11%,89.63%,31.411,0.2925,88.76%,104.9%,19.11%
JOHNSON,1212,92.74%,92.16%,11.168,0.1036,92.67%,100.1%,7.56%
Johnson - Iowa City,974,92.75%,92.62%,11.313,0.1049,92.07%,100.7%,7.49%
JONES,202,99.86%,91.61%,33.542,0.335,91.44%,109.2%,21.86%
KEOKUK,79,108.8%,100.1%,39.825,0.4335,96.90%,112.3%,28.63%
KOSSUTH,168,95.42%,92.07%,30.885,0.2947,87.74%,108.8%,21.43%
LEE,334,103.2%,94.40%,36.97,0.3814,94.53%,109.1%,24.63%
LINN,1188,99.64%,97.58%,17.12,0.1706,97.63%,102.1%,9.03%
Linn - Cedar Rapids,2068,104.3%,98.77%,26.01,0.2713,99.61%,104.7%,13.40%
LOUISA,86,108.1%,99.33%,33.348,0.3606,98.35%,109.9%,21.64%
LUCAS,73,102.4%,97.98%,35.295,0.3615,97.24%,105.3%,25.73%
LYON,128,98.23%,96.32%,28.556,0.2805,92.55%,106.1%,19.57%
MADISON,155,97.60%,94.08%,26.59,0.2595,93.68%,104.2%,15.17%
MAHASKA,260,106.4%,97.15%,31.796,0.3384,96.88%,109.8%,20.61%
MARION,407,101.1%,92.43%,37.971,0.3839,92.83%,108.9%,21.33%
MARSHALL,395,106.3%,97.77%,35.481,0.3771,97.12%,109.4%,22.86%
MILLS,178,114.8%,103.1%,39.44,0.4528,103.2%,111.2%,22.82%
MITCHELL,102,95.65%,93.86%,24.258,0.232,92.13%,103.8%,15.86%
MONONA,89,102.8%,88.49%,51.07,0.5251,86.59%,118.8%,35.82%
MONROE,79,104.3%,92.63%,49.694,0.5185,89.77%,116.2%,32.11%
MONTGOMERY,108,105.8%,94.31%,37.326,0.395,91.56%,115.6%,27.54%
MUSCATINE,480,106.9%,98.87%,40.167,0.4293,100.1%,106.8%,17.48%
OBRIEN,164,98.33%,93.14%,35.761,0.3517,89.16%,110.3%,20.82%
OSCEOLA,65,100.4%,95.94%,30.664,0.308,90.82%,110.6%,20.87%
PAGE,160,111.5%,101.8%,40.488,0.4516,99.77%,111.8%,23.65%
PALO ALTO,130,101.1%,94.45%,39.736,0.4018,90.70%,111.5%,29.56%
PLYMOUTH,289,97.25%,91.36%,33.046,0.3214,92.06%,105.6%,16.29%
POCAHONTAS,86,103.6%,91.25%,60.153,0.6229,87.82%,117.9%,34.61%
POLK,6745,101.2%,94.56%,34.276,0.347,94.61%,107.0%,15.92%
POTTAWATTAMIE,1008,108.2%,100.2%,28.973,0.3136,100.7%,107.5%,17.78%
POWESHIEK,221,101.1%,93.36%,33.464,0.3383,91.90%,110.0%,20.74%
RINGGOLD,69,104.4%,95.40%,32.71,0.3416,91.55%,114.1%,24.61%
SAC,104,100.8%,92.07%,56.757,0.5722,86.35%,116.8%,26.72%
SCOTT,1111,94.29%,91.58%,23.939,0.2257,92.39%,102.1%,11.64%
Scott - Davenport,1348,102.1%,95.51%,31.665,0.3231,96.41%,105.9%,15.19%
SHELBY,106,108.2%,94.70%,44.235,0.4787,94.85%,114.1%,27.90%
SIOUX,420,93.59%,92.90%,21.816,0.2042,91.24%,102.6%,14.90%
STORY,370,95.55%,93.20%,17.769,0.1698,93.99%,101.7%,11.04%
Story - Ames,651,96.90%,94.26%,17.296,0.1676,95.69%,101.3%,9.85%
TAMA,149,105.0%,94.97%,32.099,0.3369,95.19%,110.3%,23.91%
TAYLOR,66,108.7%,104.1%,41.574,0.4518,97.03%,112.0%,30.92%
UNION,109,102.6%,92.05%,51.255,0.526,89.17%,115.1%,30.43%
VAN BUREN,60,103.4%,99.62%,27.127,0.2806,96.07%,107.7%,19.93%
WAPELLO,360,112.3%,103.4%,45.684,0.513,100.9%,111.3%,28.71%
WARREN,590,98.79%,95.69%,20.111,0.1987,96.45%,102.4%,11.93%
WASHINGTON,245,96.20%,95.68%,17.154,0.165,93.46%,102.9%,13.19%
WAYNE,61,103.4%,95.24%,42.2,0.4362,92.74%,111.5%,28.72%
WEBSTER,467,108.2%,94.99%,44.282,0.4793,95.27%,113.6%,28.01%
WINNEBAGO,138,99.54%,93.26%,31.271,0.3113,93.59%,106.4%,21.89%
WINNESHIEK,197,95.21%,90.79%,30.219,0.2877,89.58%,106.3%,18.15%
WOODBURY,178,94.25%,90.95%,22.244,0.2097,91.35%,103.2%,13.14%
Woodbury - Sioux City,938,97.25%,90.50%,33.822,0.3289,91.21%,106.6%,18.65%
WORTH,66,106.1%,93.38%,39.348,0.4175,93.48%,113.5%,27.38%
WRIGHT,126,107.8%,101.2%,32.449,0.3498,97.30%,110.8%,22.18%
